Add rvars for the linear predictor, posterior expectation, posterior predictive, or residuals of a model to a data frame — add_epred_rvars • tidybayes
…
# Look at mean predictions for some cars (epred) and compare to
# the exponeniated mu parameter of the lognormal distribution (linpred).
# Notice how they are NOT the same. This is because exp(mu) for a
# lognormal distribution is equal to its median, not its mean.
mtcars %>%
  select(hp, cyl, mpg) %>%
  add_epred_rvars(m_mpg) %>%
  add_linpred_rvars(m_mpg, value = "mu") %>%
  mutate(expmu = exp(mu), .epred - expmu)
#> # A tibble: 32 × 7
#>       hp   cyl   mpg     .epred           mu      expmu `.epred - expmu`
#>    <dbl> <dbl> <dbl> <rvar[1d]>   <rvar[1d]> <rvar[1d]>       <rvar[1d]>
#>  1   110     6  21    20 ± 0.84  3.0 ± 0.041  20 ± 0.82     0.25 ± 0.065
#>  2   110     6  21    20 ± 0.84  3.0 ± 0.041  20 ± 0.82     0.25 ± 0.065
#>  3    93     4  22.8  26 ± 1.16  3.2 ± 0.044  26 ± 1.14     0.32 ± 0.085
#>  4   110     6  21.4  20 ± 0.84  3.0 ± 0.041  20 ± 0.82     0.25 ± 0.065
#>  5   175     8  18.7  16 ± 0.68  2.7 ± 0.044  15 ± 0.67     0.19 ± 0.049
#>  6   105     6  18.1  20 ± 0.84  3.0 ± 0.041  20 ± 0.83     0.25 ± 0.065
#>  7   245     8  14.3  15 ± 0.74  2.7 ± 0.051  14 ± 0.73     0.18 ± 0.047
#>  8    62     4  24.4  29 ± 1.75  3.3 ± 0.061  28 ± 1.74     0.36 ± 0.090
#>  9    95     4  22.8  26 ± 1.19  3.2 ± 0.046  26 ± 1.17     0.32 ± 0.085
#> 10   123     6  19.2  20 ± 0.88  3.0 ± 0.044  19 ± 0.87     0.25 ± 0.064
#> # ℹ 22 more rows
…
