Gather variables from a tidy data frame of draws from variables into a single column — gather_variables • tidybayes
…
    Matthew Kay

    Examples

# \donttest{

library(dplyr)

data(RankCorr, package = "ggdist")

RankCorr %>%
  spread_draws(b[i,v], tau[i]) %>%
  gather_variables() %>%
  median_qi()
#> # A tibble: 24 × 9
#>        i     v .variable .value  .lower .upper .width .point .interval
#>    <int> <int> <chr>      <dbl>   <dbl>  <dbl>  <dbl> <chr>  <chr>    
#>  1     1     1 b         -1.08  -1.27   -0.897   0.95 median qi       
#>  2     1     1 tau        6.03   5.03    7.11    0.95 median qi       
#>  3     1     2 b         -1.83  -2.08   -1.54    0.95 median qi       
#>  4     1     2 tau        6.03   5.03    7.11    0.95 median qi       
#>  5     1     3 b          0.175  0.0447  0.322   0.95 median qi       
#>  6     1     3 tau        6.03   5.03    7.11    0.95 median qi       
#>  7     1     4 b         -0.101 -0.347   0.134   0.95 median qi       
#>  8     1     4 tau        6.03   5.03    7.11    0.95 median qi       
#>  9     2     1 b         -0.739 -1.01   -0.430   0.95 median qi       
#> 10     2     1 tau        3.30   2.41    4.46    0.95 median qi       
#> # ℹ 14 more rows
…
