Nest and unnest rvar columns in data frames — nest_rvars • tidybayes
…
# we can unnest it into long format.
# note how the result is grouped by all non-rvar input columns,
# and nested indices in `b` are converted into columns.
draws_df = rvar_df %>%
  unnest_rvars()
draws_df
#> # A tibble: 3,000 × 9
#> # Groups:   i [3]
#>        i `b[1,1]` `b[1,2]` `b[1,3]`  `b[1,4]`   tau .chain .iteration .draw
#>    <int>    <dbl>    <dbl>    <dbl>     <dbl> <dbl>  <int>      <int> <int>
#>  1     1   -0.927    -2.09   0.111  -0.000774  5.79      1          1     1
#>  2     1   -0.979    -1.90   0.258  -0.232     6.26      1          2     2
#>  3     1   -1.15     -1.79   0.256  -0.236     7.38      1          3     3
#>  4     1   -1.09     -1.67   0.164  -0.112     5.97      1          4     4
#>  5     1   -1.20     -1.50   0.245  -0.232     6.01      1          5     5
#>  6     1   -1.07     -1.83   0.0839  0.0479    7.03      1          6     6
#>  7     1   -1.11     -1.82   0.0702  0.0382    7.39      1          7     7
#>  8     1   -1.06     -1.94   0.0600  0.0438    5.98      1          8     8
#>  9     1   -0.831    -2.19   0.353  -0.413     6.75      1          9     9
#> 10     1   -0.986    -1.86   0.0827  0.0591    6.76      1         10    10
#> # ℹ 2,990 more rows
…
