Extract draws of variables in a Bayesian model fit into a tidy data format — gather_draws • tidybayes
…
    Author

    Matthew Kay

    Examples

library(dplyr)
library(ggplot2)

data(RankCorr, package = "ggdist")

RankCorr %>%
  spread_draws(b[i, j])
#> # A tibble: 12,000 × 6
#> # Groups:   i, j [12]
#>        i     j      b .chain .iteration .draw
#>    <int> <int>  <dbl>  <int>      <int> <int>
#>  1     1     1 -0.927      1          1     1
#>  2     1     1 -0.979      1          2     2
#>  3     1     1 -1.15       1          3     3
#>  4     1     1 -1.09       1          4     4
#>  5     1     1 -1.20       1          5     5
#>  6     1     1 -1.07       1          6     6
#>  7     1     1 -1.11       1          7     7
#>  8     1     1 -1.06       1          8     8
#>  9     1     1 -0.831      1          9     9
#> 10     1     1 -0.986      1         10    10
#> # ℹ 11,990 more rows

RankCorr %>%
  spread_draws(b[i, j], tau[i], u_tau[i])
#> # A tibble: 12,000 × 8
#> # Groups:   i, j [12]
#>        i     j      b .chain .iteration .draw   tau u_tau
#>    <int> <int>  <dbl>  <int>      <int> <int> <dbl> <dbl>
#>  1     1     1 -0.927      1          1     1  5.79  5.87
#>  2     1     1 -0.979      1          2     2  6.26  4.91
#>  3     1     1 -1.15       1          3     3  7.38  3.34
#>  4     1     1 -1.09       1          4     4  5.97  6.96
#>  5     1     1 -1.20       1          5     5  6.01  5.30
#>  6     1     1 -1.07       1          6     6  7.03  5.34
#>  7     1     1 -1.11       1          7     7  7.39  5.53
#>  8     1     1 -1.06       1          8     8  5.98  6.79
#>  9     1     1 -0.831      1          9     9  6.75  5.40
#> 10     1     1 -0.986      1         10    10  6.76  6.63
#> # ℹ 11,990 more rows

RankCorr %>%
  gather_draws(b[i, j], tau[i], u_tau[i])
#> # A tibble: 18,000 × 7
#> # Groups:   i, j, .variable [18]
#>        i     j .chain .iteration .draw .variable .value
#>    <int> <int>  <int>      <int> <int> <chr>      <dbl>
#>  1     1     1      1          1     1 b         -0.927
#>  2     1     1      1          2     2 b         -0.979
#>  3     1     1      1          3     3 b         -1.15 
#>  4     1     1      1          4     4 b         -1.09 
#>  5     1     1      1          5     5 b         -1.20 
#>  6     1     1      1          6     6 b         -1.07 
#>  7     1     1      1          7     7 b         -1.11 
#>  8     1     1      1          8     8 b         -1.06 
#>  9     1     1      1          9     9 b         -0.831
#> 10     1     1      1         10    10 b         -0.986
#> # ℹ 17,990 more rows
…
